…
unsolved_homicide = 
  homicide_df %>% 
  filter(disposition %in% c("Closed without arrest", "Open/No arrest")) %>% 
  group_by(city) %>% 
  summarise(unsolved_count = n())

left_join(total_homicid, unsolved_homicide)
```

    ## Joining, by = "city"

    ## # A tibble: 50 × 3
    ##    city        total_count unsolved_count
    ##    <chr>             <int>          <int>
    ##  1 Albuquerque         378            146
    ##  2 Atlanta             973            373
    ##  3 Baltimore          2827           1825
    ##  4 Baton Rouge         424            196
    ##  5 Birmingham          800            347
    ##  6 Boston              614            310
    ##  7 Buffalo             521            319
    ##  8 Charlotte           687            206
    ##  9 Chicago            5535           4073
    ## 10 Cincinnati          694            309
    ## # … with 40 more rows
…
